{
  "project_info": {
    "project_number": "647401026302",
    "firebase_url": "https://squareui.firebaseio.com",
    "project_id": "squareui",
    "storage_bucket": "squareui.appspot.com"
  },
  "client": [
    {
      "client_info": {
        "mobilesdk_app_id": "1:647401026302:android:f3203bf3a79de741",
        "android_client_info": {
          "package_name": "com.KRKIDS.squareUI"
        }
      },
      "oauth_client": [
        {
          "client_id": "647401026302-i96dfk4l1pb9u3skdssjebkfsi9s6n5q.apps.googleusercontent.com",
          "client_type": 3
        }
      ],
      "api_key": [
        {
          "current_key": "AIzaSyA7B-i15PFswuaIisVbjapT2Vk46mwfN3A"
        }
      ],
      "services": {
        "analytics_service": {
          "status": 1
        },
        "appinvite_service": {
          "status": 1,
          "other_platform_oauth_client": []
        },
        "ads_service": {
          "status": 2
        }
      }
    }
  ],
  "configuration_version": "1"
}